## Title: BarMath Addon - Pet XP
## Version: 1.0
## Interface: 30300
## DefaultState: Disabled
## Author: Kjasi
## Notes: Hunter Pet XP Addon for BarMath
## Dependancies: BarMath
## eMail: sephiroth3d@gmail.com
## URL: http://code.google.com/p/kjasiwowaddons/
localization.lua
func.xp.lua
options.lua
options.xml